Reproducible Research: Peer Assessment 1
…
2.Make a panel plot containing a time series plot (i.e.type = l) of the 5-minute interval (x-axis) and the average number of steps taken, averaged across all weekday days or weekend days (y-axis). See the README file in the GitHub repository to see an example of what this plot should look like using simulated data.

library(dplyr)

plotdata<-newData%>%group_by(fac,interval) %>%
        summarise(aveStep=mean(steps))

## `summarise()` regrouping output by 'fac' (override with `.groups` argument)

plotdata

## # A tibble: 576 x 3
## # Groups:   fac [2]
##    fac     interval aveStep
##    <fct>      <int>   <dbl>
##  1 Weekday        0  2.25  
##  2 Weekday        5  0.445 
##  3 Weekday       10  0.173 
##  4 Weekday       15  0.198 
##  5 Weekday       20  0.0990
##  6 Weekday       25  1.59  
##  7 Weekday       30  0.693 
##  8 Weekday       35  1.14  
##  9 Weekday       40  0     
## 10 Weekday       45  1.80  
## #  with 566 more rows
…
